{
    "storeHouse":[
        {"sourceName":"自己️","sourceUrl":"https://gitlab.com/quyujia1987/TV/-/raw/master/update_yuan"},
       // {"sourceName":"大佬","sourceUrl":"https://gitlab.com/quyujia1987/TV/-/raw/master/update_yuan12"},
        {"sourceName":"️云星在线仓库","sourceUrl":"https://maoyingshi.cc/可视TV/云星日记/仓库/api.json"},
        {"sourceName":"️☁️云星极速仓库","sourceUrl":"https://maoyingshi.cc/可视TV/云星日记/仓库/极速仓库.json"},
        {"sourceName":"☁️云星缓冲仓库","sourceUrl":"https://maoyingshi.cc/可视TV/云星日记/仓库/缓冲仓库.json"},
        {"sourceName":"☁️云星大佬仓库","sourceUrl":"https://maoyingshi.cc/可视TV/云星日记/仓库/大佬仓库.json"},
        //{"sourceName":"可视内置②仓","sourceUrl":"https://agit.ai/hu/hcr/raw/branch/master/99668.txt"},
       // {"sourceName":"多多仓库","sourceUrl":"https://gitlab.com/duomv/apps/-/raw/main/fast.json"},
        {"sourceName":"💚多多极速仓","sourceUrl":"https://gitlab.com/duomv/apps/-/raw/main/1.txt"},
{"sourceName":"💛多多缓冲仓","sourceUrl":"https://gitlab.com/duomv/apps/-/raw/main/2.txt"},
{"sourceName":"❤️多多蜗牛仓","sourceUrl":"https://gitlab.com/duomv/apps/-/raw/main/3.txt"},
{"sourceName":"🥕多多预备仓","sourceUrl":"https://gitlab.com/duomv/apps/-/raw/main/4.txt"},
        {"sourceName": "安卓哥开发1号仓","sourceUrl": "https://gitcode.net/wzlyd1/00/-/raw/master/0.txt"},
        {"sourceName": "安卓哥开发2号仓","sourceUrl": "https://gitcode.net/wzlyd1/00/-/raw/master/1.txt"},
        {"sourceName":"安卓哥开发3号仓","sourceUrl":"https://raw.fastgit.org/leevi0709/apps/main/1"},
        {"sourceName": "安卓哥开发js仓库","sourceUrl": "https://gitcode.net/wzlyd1/00/-/raw/master/js_store"},
        {"sourceName": "安卓哥开发py仓库","sourceUrl": "https://gitcode.net/wzlyd1/00/-/raw/master/py_store"},
        {
                "sourceName":"🦄微信🦞公众号🦄",
                "sourceUrl":"https://agit.ai/gk0748/gk0/raw/branch/master/fj.txt"
        },
        {
                "sourceName":"🦄星河🦞软件园🦄",
                "sourceUrl":"https://gitcode.net/wzlyd1/00/-/raw/master/0.txt"
        },
        {
                "sourceName":"🦄长期🦞维护更新🦄",
                "sourceUrl":"https://gitcode.net/wzlyd1/00/-/raw/master/1.txt"
        },
 {
                "sourceName":"🦄星河仓库🦄",
                "sourceUrl":"https://agit.ai/hu/hcr/raw/branch/master/99668.txt"
        },
{ "sourceName": "🌸超级仓库", "sourceUrl": "https://agit.ai/hu/hcr/raw/branch/master/99668.txt" }, 
{ "sourceName": "🦆精品仓库", "sourceUrl": "https://agit.ai/hu/hcr/raw/commit/afdc0352f3267745a2144786a900efcf1e5c6de6/%e6%8e%a5%e5%8f%a3%e4%bb%93%e5%ba%93%e6%a8%a1%e7%89%88.txt" }, 
{ "sourceName": "🎀精品仓库102", "sourceUrl": " https://pan.css.lc/api/v3/file/get/89920/%E6%98%9F%E6%B2%B3%E8%BD%AF%E4%BB%B6%E5%9B%AD%E7%BB%BF%E8%89%B2%E4%BB%93%E5%BA%93.txt?sign=kHRUFbInXSY091BK6bzSDmd2gReOQI6Az7AuxS6yPbc%3D%3A0 " }, 
{ "sourceName": "👒嘟嘟仓库", "sourceUrl": "https://agit.ai/hu/hcr/raw/commit/beb954f1ae6828ab8dc86b4059cf98e6378bce3b/duo.txt" }, 

{"sourceName":"  ①号库
","sourceUrl":"      https://box.nxog.top/1
"},
  
{"sourceName":"  ②号库
","sourceUrl":"      https://box.nxog.top/2
"},
  
{"sourceName":"  ③号库
","sourceUrl":"      https://box.nxog.top/3
"},

{"sourceName":"  ④号库
","sourceUrl":"      https://box.nxog.top/4
"},

{"sourceName":"  ⑤号库
","sourceUrl":"      https://box.nxog.top/5
"},

{"sourceName":"  ⑥号库
","sourceUrl":"      https://box.nxog.top/6
"},

{"sourceName":"  ⑦号库
","sourceUrl":"      https://box.nxog.top/7
"},

{"sourceName":"  ⑧号库
","sourceUrl":"      https://box.nxog.top/8
"},

{"sourceName":"  ⑨号库
","sourceUrl":"      https://box.nxog.top/9
"},

{"sourceName":"  ⑩号库
","sourceUrl":"      https://box.nxog.top/10
"},

{"sourceName":"  ⑪号库
","sourceUrl":"      https://box.nxog.top/11
"},

{"sourceName":"  ⑫号库
","sourceUrl":"      https://box.nxog.top/12
"},

{"sourceName":"  ⑬号库
","sourceUrl":"      https://box.nxog.top/13
"},

{"sourceName":"  ⑭号库
","sourceUrl":"      https://box.nxog.top/14
"},

{"sourceName":"  ⑮号库
","sourceUrl":"      https://box.nxog.top/15
"},

{"sourceName":"  ⑯号库
","sourceUrl":"      https://box.nxog.top/16
"},

{"sourceName":"  ⑰号库
","sourceUrl":"      https://box.nxog.top/17
"},

{"sourceName":"  ⑱号库
","sourceUrl":"      https://box.nxog.top/18
"},

{"sourceName":"  ⑲号库
","sourceUrl":"      https://box.nxog.top/19
"},

{"sourceName":"  ⑳号库
","sourceUrl":"      https://gitcode.net/go/go/-/raw/o/ck_2.bin
"},
  
{"sourceName":"  ②①号库
","sourceUrl":"      https://agit.ai/66666/mao/raw/commit/0ec2c15e9a1a0df2ae6c44b4d7d7a4083d6d6f77/00/xx/0update_yuan
"},
  
{"sourceName":"  ②②号库
","sourceUrl":"      https://agit.ai/zqk219/baip/raw/branch/master/zqk19.json
"},
  
{"sourceName":"  ②③号库
","sourceUrl":"      https://agit.ai/zqk219/baip/raw/branch/master/1
"},
  
{"sourceName":"  ②④号库
","sourceUrl":"      https://agit.ai/zqk219/baip/raw/branch/master/6
"},
  
{"sourceName":"  ②⑤号库
","sourceUrl":"      https://agit.ai/zqk219/baip/raw/branch/master/7
"},
  
{"sourceName":"  ②⑥号库
","sourceUrl":"      https://agit.ai/zhanghong/jyys/raw/branch/master/2
"},
  
{"sourceName":"  ②⑦号库
","sourceUrl":"      https://agit.ai/dlee2008/66666/raw/branch/master/update_yuan.txt
"},
   
{"sourceName":"  ②⑧号库
","sourceUrl":"      http://5.nxog.top/m/dc/api/api/1/tv/update_yuan
"},
    
{"sourceName":"  ②⑨号库
","sourceUrl":"      http://5.nxog.top/m/dc/api/api/2/tv/update_yuan
"},
     
{"sourceName":"  ③⑩号库
","sourceUrl":"      http://5.nxog.top/m/dc/api/api/3/tv/update_yuan
"},
       
{"sourceName":"  ③①号库
","sourceUrl":"      http://5.nxog.top/m/dc/api/api/4/tv/update_yuan
"},
       
{"sourceName":"  ③②号库
","sourceUrl":"      http://5.nxog.top/m/dc/api/api/5/tv/update_yuan
"},
       
{"sourceName":"  ③③号库
","sourceUrl":"      http://5.nxog.top/m/dc/api/api/6/tv/update_yuan
"},
       
{"sourceName":"  ③④号库
","sourceUrl":"      http://5.nxog.top/m/dc/api/api/7/tv/update_yuan
"},
       
{"sourceName":"  ③⑤号库
","sourceUrl":"      http://5.nxog.top/m/dc/api/api/8/tv/update_yuan
"},
       
{"sourceName":"  ③⑥号库
","sourceUrl":"      http://5.nxog.top/m/dc/api/api/9/tv/update_yuan
"},
       
{"sourceName":"  ③⑦号库
","sourceUrl":"      http://5.nxog.top/m/dc/api/api/10/tv/update_yuan
"},
       
{"sourceName":"  ③⑧号库
","sourceUrl":"      http://5.nxog.top/m/dc/api/api/11/tv/update_yuan
"},
       
{"sourceName":"  ③⑨号库
","sourceUrl":"      http://5.nxog.top/m/dc/api/api/12/tv/update_yuan
"},
       
{"sourceName":"  ④⑩号库
","sourceUrl":"      http://5.nxog.top/m/dc/api/api/13/tv/update_yuan
"},
       
{"sourceName":"  ④①号库
","sourceUrl":"      http://5.nxog.top/m/dc/api/api/14/tv/update_yuan
"},
         
{"sourceName":"  ④②号库
","sourceUrl":"      http://5.nxog.top/m/dc/api/api/15/tv/update_yuan
"},
         
{"sourceName":"  ④③号库
","sourceUrl":"      http://5.nxog.top/m/dc/api/api/16/tv/update_yuan
"},
         
{"sourceName":"  ④④号库
","sourceUrl":"      http://5.nxog.top/m/dc/api/api/17/tv/update_yuan
"},
         
{"sourceName":"  ④⑤号库
","sourceUrl":"      http://5.nxog.top/m/dc/api/api/18/tv/update_yuan
"},
         
{"sourceName":"  ④⑥号库
","sourceUrl":"      http://5.nxog.top/m/dc/api/api/19/tv/update_yuan
"},
          
{"sourceName":"  ④⑦号库
","sourceUrl":"      http://5.nxog.top/m/dc/api/api/20/tv/update_yuan
"},
          
{"sourceName":"  ④⑧号库
","sourceUrl":"      http://5.nxog.top/m/dc/api/api/21/tv/update_yuan
"},
          
{"sourceName":"  ④⑨号库
","sourceUrl":"      https://vkceyugu.cdn.bspapp.com/VKCEYUGU-f365e319-1b15-4229-8d34-50ae05216295/120d3e71-21cb-4eb4-b038-83646731ff3f.jpg
"},
           
{"sourceName":"  ⑤⑩号库
","sourceUrl":"      https://vkceyugu.cdn.bspapp.com/VKCEYUGU-f365e319-1b15-4229-8d34-50ae05216295/aad39872-4956-4aec-a930-fa8e8e78d641.jpg
"},
            
{"sourceName":"  ⑤①号库
","sourceUrl":"      https://vkceyugu.cdn.bspapp.com/VKCEYUGU-f365e319-1b15-4229-8d34-50ae05216295/521f2d2e-579c-4e17-871f-351d1f98b6e1.jpg
"},
            
{"sourceName":"  ⑤②号库
","sourceUrl":"      https://vkceyugu.cdn.bspapp.com/VKCEYUGU-f365e319-1b15-4229-8d34-50ae05216295/415109ff-2e36-4ca9-a957-977f929bc102.jpg
"},
            
{"sourceName":"  ⑤③号库
","sourceUrl":"      https://vkceyugu.cdn.bspapp.com/VKCEYUGU-f365e319-1b15-4229-8d34-50ae05216295/1bf5f4d3-893c-49e7-9ec0-56017a4f6b90.jpg
"},
            
{"sourceName":"  ⑤④号库
","sourceUrl":"      https://vkceyugu.cdn.bspapp.com/VKCEYUGU-f365e319-1b15-4229-8d34-50ae05216295/cf7eddf7-ed28-4fc7-afb6-6753864c27fa.jpg
"},
            
{"sourceName":"  ⑤⑤号库
","sourceUrl":"      https://vkceyugu.cdn.bspapp.com/VKCEYUGU-f365e319-1b15-4229-8d34-50ae05216295/4559125b-4940-48ab-a322-ca6cd9c8d168.jpg
"},
            
{"sourceName":"  ⑤⑥号库
","sourceUrl":"      https://vkceyugu.cdn.bspapp.com/VKCEYUGU-f365e319-1b15-4229-8d34-50ae05216295/45905a07-23d5-468e-94ef-87c9c8a1ce67.jpg
"},
            
{"sourceName":"  ⑤⑦号库
","sourceUrl":"      https://vkceyugu.cdn.bspapp.com/VKCEYUGU-f365e319-1b15-4229-8d34-50ae05216295/6e70b9bc-004a-4f16-8267-8d1dcbb0a531.jpg
"},
            
{"sourceName":"  ⑤⑧号库
","sourceUrl":"      https://vkceyugu.cdn.bspapp.com/VKCEYUGU-f365e319-1b15-4229-8d34-50ae05216295/9ca84e3c-9e03-4b94-b49f-333fe0174544.jpg
"},
            
{"sourceName":"  ⑤⑨号库
","sourceUrl":"      https://vkceyugu.cdn.bspapp.com/VKCEYUGU-f365e319-1b15-4229-8d34-50ae05216295/777577cb-8372-4f4e-a2c1-46388794f9bc.jpg
"},
            
{"sourceName":"  ⑥⑩号库
","sourceUrl":"      https://vkceyugu.cdn.bspapp.com/VKCEYUGU-f365e319-1b15-4229-8d34-50ae05216295/3ddf2db4-4305-4994-98fe-08967b6b788d.jpg
"},
            
{"sourceName":"  ⑥①号库
","sourceUrl":"      https://vkceyugu.cdn.bspapp.com/VKCEYUGU-f365e319-1b15-4229-8d34-50ae05216295/dc6b2c86-b4f8-4298-9a3c-18653953dc26.jpg
"},
            
{"sourceName":"  ⑥②号库
","sourceUrl":"      https://vkceyugu.cdn.bspapp.com/VKCEYUGU-f365e319-1b15-4229-8d34-50ae05216295/381beacb-eecc-47a7-98b3-8d65fea5b57e.jpg
"},
            
{"sourceName":"  ⑥③号库
","sourceUrl":"      https://vkceyugu.cdn.bspapp.com/VKCEYUGU-f365e319-1b15-4229-8d34-50ae05216295/bd7b7d4d-164b-4117-aed3-c78496ef284d.jpg
"},
            
{"sourceName":"  ⑥④号库
","sourceUrl":"      https://vkceyugu.cdn.bspapp.com/VKCEYUGU-f365e319-1b15-4229-8d34-50ae05216295/53e584f7-48da-40b1-b213-e71e5055f3cb.jpg
"},
            
{"sourceName":"  ⑥⑤号库
","sourceUrl":"      https://vkceyugu.cdn.bspapp.com/VKCEYUGU-f365e319-1b15-4229-8d34-50ae05216295/f721e0c9-7882-4352-acb2-c0a78539ba44.jpg
"},
            
{"sourceName":"  ⑥⑥号库
","sourceUrl":"      https://vkceyugu.cdn.bspapp.com/VKCEYUGU-f365e319-1b15-4229-8d34-50ae05216295/de5cb406-a6c0-471f-9921-66ec910e5ba6.jpg
"},
            
{"sourceName":"  ⑥⑦号库
","sourceUrl":"      https://vkceyugu.cdn.bspapp.com/VKCEYUGU-f365e319-1b15-4229-8d34-50ae05216295/94442143-d489-42ae-a79d-f2c00db61903.jpg
"},
            
{"sourceName":"  ⑥⑧号库
","sourceUrl":"      https://vkceyugu.cdn.bspapp.com/VKCEYUGU-f365e319-1b15-4229-8d34-50ae05216295/f5d5dbc6-d403-4cc4-92d5-f213319713bf.jpg
"},
{ "sourceName": "69", "sourceUrl": "http://5.nxog.top/m/dc/api/api/1/tv/update_yuan" }, 
{ "sourceName": "70", "sourceUrl": " http://ob4.cn/tvbdc  " }, 
{ "sourceName": "4号仓库", "sourceUrl": "http://5.nxog.top/m/dc/api/api/4/tv/update_yuan" }, 
{ "sourceName": "5号仓库", "sourceUrl": "http://5.nxog.top/m/dc/api/api/5/tv/update_yuan" }, 
{ "sourceName": "6号仓库", "sourceUrl": "http://5.nxog.top/m/dc/api/api/6/tv/update_yuan" }, 
{ "sourceName": "7号仓库", "sourceUrl": "http://5.nxog.top/m/dc/api/api/7/tv/update_yuan" },
 { "sourceName": "8号仓库", "sourceUrl": "http://5.nxog.top/m/dc/api/api/8/tv/update_yuan" },
{ "sourceName": "9号仓库", "sourceUrl": "http://5.nxog.top/m/dc/api/api/9/tv/update_yuan" }, 
{ "sourceName": "10号仓库", "sourceUrl": "http://5.nxog.top/m/dc/api/api/10/tv/update_yuan" },
 { "sourceName": "11号仓库", "sourceUrl": "http://5.nxog.top/m/dc/api/api/11/tv/update_yuan" }, 
{ "sourceName": "12号仓库", "sourceUrl": "http://5.nxog.top/m/dc/api/api/12/tv/update_yuan" }, 
{ "sourceName": "13号仓库", "sourceUrl": "http://5.nxog.top/m/dc/api/api/13/tv/update_yuan" }, 
{ "sourceName": "14号仓库", "sourceUrl": "http://5.nxog.top/m/dc/api/api/14/tv/update_yuan" },
 { "sourceName": "15号仓库", "sourceUrl": "http://5.nxog.top/m/dc/api/api/15/tv/update_yuan" }, 
{ "sourceName": "16号仓库", "sourceUrl": "http://5.nxog.top/m/dc/api/api/16/tv/update_yuan" }, 
{ "sourceName": "17号仓库", "sourceUrl": "http://5.nxog.top/m/dc/api/api/17/tv/update_yuan" }, 
{ "sourceName": "18号仓库", "sourceUrl": "http://5.nxog.top/m/dc/api/api/18/tv/update_yuan" }, 
{ "sourceName": "19号仓库", "sourceUrl": "http://5.nxog.top/m/dc/api/api/19/tv/update_yuan" }, 
{ "sourceName": "20号仓库", "sourceUrl": "http://5.nxog.top/m/dc/api/api/20/tv/update_yuan" },


{ "sourceName": "23号仓库", "sourceUrl": "https://gitcode.net/go/go/-/raw/o/ck_2.bin" }, 
{ "sourceName": "24号仓库", "sourceUrl": "https://agit.ai/66666/mao/raw/commit/0ec2c15e9a1a0df2ae6c44b4d7d7a4083d6d6f77/00/xx/0update_yuan" }, 
{ "sourceName": "25号仓库", "sourceUrl": "https://agit.ai/zqk219/baip/raw/branch/master/zqk19.json" }, 
{ "sourceName": "26号仓库", "sourceUrl": "https://agit.ai/zqk219/baip/raw/branch/master/1" }, 
{ "sourceName": "27号仓库", "sourceUrl": "https://agit.ai/zqk219/baip/raw/branch/master/6" }, 
{ "sourceName": "28号仓库", "sourceUrl": "https://agit.ai/zqk219/baip/raw/branch/master/7" }, 
{ "sourceName": "29号仓库", "sourceUrl": "http://5.nxog.top/m/dc/api/api/20/tv/update_yuan" },  

        {
                "sourceName":"4号仓库",
                "sourceUrl":"https://box.nxog.top/1"
        },
        {
                "sourceName":"5号仓库",
                "sourceUrl":"https://box.nxog.top/2"
        },
        {
                "sourceName":"6号仓库",
                "sourceUrl":"https://box.nxog.top/3"
        },
        {
                "sourceName":"7号仓库",
                "sourceUrl":"https://box.nxog.top/4"
        },
        {
                "sourceName":"8号仓库",
                "sourceUrl":"http://maoyingshi.cc/可视TV/124/仓库.json"
        },
        {
                "sourceName":"9号仓库",
                "sourceUrl":"https://box.nxog.top/6"
        },
        {
                "sourceName":"10号仓库",
                "sourceUrl":"https://box.nxog.top/7"
        },
        {
                "sourceName":"11号仓库",
                "sourceUrl":"https://box.nxog.top/8"
        },
        {
                "sourceName":"12号仓库",
                "sourceUrl":"https://box.nxog.top/9"
        },
        {
                "sourceName":"13号仓库",
                "sourceUrl":"https://box.nxog.top/10"
        },
        {
                "sourceName":"14号仓库",
                "sourceUrl":"https://box.nxog.top/11"
        },
        {
                "sourceName":"15号仓库",
                "sourceUrl":"https://box.nxog.top/12"
        },
        {
                "sourceName":"16号仓库",
                "sourceUrl":"https://box.nxog.top/13"
        },
        {
                "sourceName":"17号仓库",
                "sourceUrl":"https://box.nxog.top/14"
        },
        {
                "sourceName":"18号仓库",
                "sourceUrl":"https://box.nxog.top/15"
        },
        {
                "sourceName":"19号仓库",
                "sourceUrl":"https://box.nxog.top/16"
        },
        {
                "sourceName":"20号仓库",
                "sourceUrl":"https://box.nxog.top/17"
        },
        {
                "sourceName":"21号仓库",
                "sourceUrl":"https://box.nxog.top/18"
        },
        {
                "sourceName":"22号仓库",
                "sourceUrl":"https://box.nxog.top/19"
        },
        {
                "sourceName":"23号仓库",
                "sourceUrl":"https://gitcode.net/go/go/-/raw/o/ck_2.bin"
        },
        {
                "sourceName":"24号仓库",
                "sourceUrl":"https://agit.ai/66666/mao/raw/commit/0ec2c15e9a1a0df2ae6c44b4d7d7a4083d6d6f77/00/xx/0update_yuan"
        },
        {
                "sourceName":"25号仓库",
                "sourceUrl":"https://agit.ai/zqk219/baip/raw/branch/master/zqk19.json"
        },
        {
                "sourceName":"26号仓库",
                "sourceUrl":"https://agit.ai/zqk219/baip/raw/branch/master/1"
        },
        {
                "sourceName":"27号仓库",
                "sourceUrl":"https://agit.ai/zqk219/baip/raw/branch/master/6"
        },
        {
                "sourceName":"28号仓库",
                "sourceUrl":"https://agit.ai/zqk219/baip/raw/branch/master/7"
        },
        {
                "sourceName":"29号仓库",
                "sourceUrl":"https://agit.ai/zhanghong/jyys/raw/branch/master/2"
        },
        {
                "sourceName":"30号仓库",
                "sourceUrl":"https://agit.ai/dlee2008/66666/raw/branch/master/update_yuan.txt"
        },
        {
                "sourceName":"31号仓库",
                "sourceUrl":"http://5.nxog.top/m/dc/api/api/1/tv/update_yuan"
        },
        {
                "sourceName":"32号仓库",
                "sourceUrl":"http://5.nxog.top/m/dc/api/api/2/tv/update_yuan"
        },
        {
                "sourceName":"33号仓库",
                "sourceUrl":"http://5.nxog.top/m/dc/api/api/3/tv/update_yuan"
        },
        {
                "sourceName":"34号仓库",
                "sourceUrl":"http://5.nxog.top/m/dc/api/api/4/tv/update_yuan"
        },
        {
                "sourceName":"35号仓库",
                "sourceUrl":"http://5.nxog.top/m/dc/api/api/5/tv/update_yuan"
        },
        {
                "sourceName":"36号仓库",
                "sourceUrl":"http://5.nxog.top/m/dc/api/api/6/tv/update_yuan"
        },
        {
                "sourceName":"37号仓库",
                "sourceUrl":"http://5.nxog.top/m/dc/api/api/7/tv/update_yuan"
        },
        {
                "sourceName":"38号仓库",
                "sourceUrl":"http://5.nxog.top/m/dc/api/api/8/tv/update_yuan"
        },
        {
                "sourceName":"39号仓库",
                "sourceUrl":"http://5.nxog.top/m/dc/api/api/9/tv/update_yuan"
        },
        {
                "sourceName":"40号仓库",
                "sourceUrl":"http://5.nxog.top/m/dc/api/api/10/tv/update_yuan"
        },
        {
                "sourceName":"41号仓库",
                "sourceUrl":"http://5.nxog.top/m/dc/api/api/11/tv/update_yuan"
        },
        {
                "sourceName":"42号仓库",
                "sourceUrl":"http://5.nxog.top/m/dc/api/api/12/tv/update_yuan"
        },
        {
                "sourceName":"43号仓库",
                "sourceUrl":"http://5.nxog.top/m/dc/api/api/13/tv/update_yuan"
        },
        {
                "sourceName":"44号仓库",
                "sourceUrl":"http://5.nxog.top/m/dc/api/api/14/tv/update_yuan"
        },
        {
                "sourceName":"45号仓库",
                "sourceUrl":"http://5.nxog.top/m/dc/api/api/15/tv/update_yuan"
        },
        {
                "sourceName":"46号仓库",
                "sourceUrl":"http://5.nxog.top/m/dc/api/api/16/tv/update_yuan"
        },
        {
                "sourceName":"47号仓库",
                "sourceUrl":"http://5.nxog.top/m/dc/api/api/17/tv/update_yuan"
        },
        {
                "sourceName":"48号仓库",
                "sourceUrl":"http://5.nxog.top/m/dc/api/api/18/tv/update_yuan"
        },
        {
                "sourceName":"49号仓库",
                "sourceUrl":"http://5.nxog.top/m/dc/api/api/19/tv/update_yuan"
        },
        {
                "sourceName":"50号仓库",
                "sourceUrl":"http://5.nxog.top/m/dc/api/api/20/tv/update_yuan"
        },
        {
                "sourceName":"51号仓库",
                "sourceUrl":"http://5.nxog.top/m/dc/api/api/21/tv/update_yuan"
        },
        {
                "sourceName":"52号仓库",
                "sourceUrl":"http://jiekou.gq/zb/1.html"
        },
        {
                "sourceName":"53号仓库",
                "sourceUrl":"http://jiekou.gq/zb/2.html"
        },
        {
                "sourceName":"54号仓库",
                "sourceUrl":"http://jiekou.gq/zb/3.html"
        },
        {
                "sourceName":"55号仓库",
                "sourceUrl":"http://jiekou.gq/zb/4.html"
        },
        {
                "sourceName":"56号仓库",
                "sourceUrl":"http://jiekou.gq/zb/5.html"
        },
        {
                "sourceName":"57号仓库",
                "sourceUrl":"http://jiekou.gq/zb/6.html"
        },
        {
                "sourceName":"58号仓库",
                "sourceUrl":"http://jiekou.gq/zb/7.html"
        },
        {
                "sourceName":"59号仓库",
                "sourceUrl":"http://jiekou.gq/zb/8.html"
        },
        {
                "sourceName":"60号仓库",
                "sourceUrl":"http://jiekou.gq/zb/9.html"
        },
        {
                "sourceName":"61号仓库",
                "sourceUrl":"http://jiekou.gq/zb/10.html"
        },
        {
                "sourceName":"62号仓库",
                "sourceUrl":"http://jiekou.gq/zb/11.html"
        },
        {
                "sourceName":"63号仓库",
                "sourceUrl":"http://jiekou.gq/zb/12.html"
        },
        {
                "sourceName":"64号仓库",
                "sourceUrl":"http://jiekou.gq/zb/13.html"
        },
        {
                "sourceName":"65号仓库",
                "sourceUrl":"http://jiekou.gq/zb/14.html"
        },
        {
                "sourceName":"66号仓库",
                "sourceUrl":"http://jiekou.gq/zb/15.html"
        },
        {
                "sourceName":"67号仓库",
                "sourceUrl":"http://jiekou.gq/zb/16.html"
        },
        {
                "sourceName":"68号仓库",
                "sourceUrl":"http://jiekou.gq/zb/17.html"
        },
        {
                "sourceName":"69号仓库",
                "sourceUrl":"http://jiekou.gq/zb/18.html"
        },
        {
                "sourceName":"70号仓库",
                "sourceUrl":"http://jiekou.gq/zb/19.html"
        },
        {
                "sourceName":"71号仓库",
                "sourceUrl":"https://vkceyugu.cdn.bspapp.com/VKCEYUGU-f365e319-1b15-4229-8d34-50ae05216295/120d3e71-21cb-4eb4-b038-83646731ff3f.jpg"
        },
        {
                "sourceName":"72号仓库",
                "sourceUrl":"https://vkceyugu.cdn.bspapp.com/VKCEYUGU-f365e319-1b15-4229-8d34-50ae05216295/aad39872-4956-4aec-a930-fa8e8e78d641.jpg"
        },
        {
                "sourceName":"73号仓库",
                "sourceUrl":"https://vkceyugu.cdn.bspapp.com/VKCEYUGU-f365e319-1b15-4229-8d34-50ae05216295/521f2d2e-579c-4e17-871f-351d1f98b6e1.jpg"
        },
        {
                "sourceName":"74号仓库",
                "sourceUrl":"https://vkceyugu.cdn.bspapp.com/VKCEYUGU-f365e319-1b15-4229-8d34-50ae05216295/415109ff-2e36-4ca9-a957-977f929bc102.jpg"
        },
        {
                "sourceName":"75号仓库",
                "sourceUrl":"https://vkceyugu.cdn.bspapp.com/VKCEYUGU-f365e319-1b15-4229-8d34-50ae05216295/1bf5f4d3-893c-49e7-9ec0-56017a4f6b90.jpg"
        },
        {
                "sourceName":"76号仓库",
                "sourceUrl":"https://vkceyugu.cdn.bspapp.com/VKCEYUGU-f365e319-1b15-4229-8d34-50ae05216295/cf7eddf7-ed28-4fc7-afb6-6753864c27fa.jpg"
        },
        {
                "sourceName":"77号仓库",
                "sourceUrl":"https://vkceyugu.cdn.bspapp.com/VKCEYUGU-f365e319-1b15-4229-8d34-50ae05216295/4559125b-4940-48ab-a322-ca6cd9c8d168.jpg"
        },
        {
                "sourceName":"78号仓库",
                "sourceUrl":"https://vkceyugu.cdn.bspapp.com/VKCEYUGU-f365e319-1b15-4229-8d34-50ae05216295/45905a07-23d5-468e-94ef-87c9c8a1ce67.jpg"
        },
        {
                "sourceName":"79号仓库",
                "sourceUrl":"https://vkceyugu.cdn.bspapp.com/VKCEYUGU-f365e319-1b15-4229-8d34-50ae05216295/6e70b9bc-004a-4f16-8267-8d1dcbb0a531.jpg"
        },
        {
                "sourceName":"80号仓库",
                "sourceUrl":"https://vkceyugu.cdn.bspapp.com/VKCEYUGU-f365e319-1b15-4229-8d34-50ae05216295/9ca84e3c-9e03-4b94-b49f-333fe0174544.jpg"
        },
        {
                "sourceName":"81号仓库",
                "sourceUrl":"https://vkceyugu.cdn.bspapp.com/VKCEYUGU-f365e319-1b15-4229-8d34-50ae05216295/777577cb-8372-4f4e-a2c1-46388794f9bc.jpg"
        },
        {
                "sourceName":"82号仓库",
                "sourceUrl":"https://vkceyugu.cdn.bspapp.com/VKCEYUGU-f365e319-1b15-4229-8d34-50ae05216295/3ddf2db4-4305-4994-98fe-08967b6b788d.jpg"
        },
        {
                "sourceName":"83号仓库",
                "sourceUrl":"https://vkceyugu.cdn.bspapp.com/VKCEYUGU-f365e319-1b15-4229-8d34-50ae05216295/dc6b2c86-b4f8-4298-9a3c-18653953dc26.jpg"
        },
        {
                "sourceName":"84号仓库",
                "sourceUrl":"https://vkceyugu.cdn.bspapp.com/VKCEYUGU-f365e319-1b15-4229-8d34-50ae05216295/381beacb-eecc-47a7-98b3-8d65fea5b57e.jpg"
        },
        {
                "sourceName":"85号仓库",
                "sourceUrl":"https://vkceyugu.cdn.bspapp.com/VKCEYUGU-f365e319-1b15-4229-8d34-50ae05216295/bd7b7d4d-164b-4117-aed3-c78496ef284d.jpg"
        },
        {
                "sourceName":"86号仓库",
                "sourceUrl":"https://vkceyugu.cdn.bspapp.com/VKCEYUGU-f365e319-1b15-4229-8d34-50ae05216295/53e584f7-48da-40b1-b213-e71e5055f3cb.jpg"
        },
        {
                "sourceName":"87号仓库",
                "sourceUrl":"https://vkceyugu.cdn.bspapp.com/VKCEYUGU-f365e319-1b15-4229-8d34-50ae05216295/f721e0c9-7882-4352-acb2-c0a78539ba44.jpg"
        },
        {
                "sourceName":"88号仓库",
                "sourceUrl":"https://vkceyugu.cdn.bspapp.com/VKCEYUGU-f365e319-1b15-4229-8d34-50ae05216295/de5cb406-a6c0-471f-9921-66ec910e5ba6.jpg"
        },
        {
                "sourceName":"89号仓库",
                "sourceUrl":"https://vkceyugu.cdn.bspapp.com/VKCEYUGU-f365e319-1b15-4229-8d34-50ae05216295/94442143-d489-42ae-a79d-f2c00db61903.jpg"
        },
        {
                "sourceName":"90号仓库",
                "sourceUrl":"https://vkceyugu.cdn.bspapp.com/VKCEYUGU-f365e319-1b15-4229-8d34-50ae05216295/f5d5dbc6-d403-4cc4-92d5-f213319713bf.jpg"
        },
        {
                "sourceName":"91号仓库",
                "sourceUrl":"https://pan.css.lc/api/v3/file/get/89945/%E6%98%9F%E6%B2%B3%E8%BD%AF%E4%BB%B6%E5%9B%AD%E5%A4%9A%E7%BA%BF%E8%B7%AF%E4%BB%93%E5%BA%93.txt?sign=2ajJ85uhS8mnmvvOICeW4a8d1AeVjp5VFZvBgbAz0cc%3D%3A0"
        },
        {
                "sourceName":"92号仓库",
                "sourceUrl":"https://pan.css.lc/api/v3/file/get/89948/hEFprzQq_uera-1.TXT?sign=E7-zEv9Vr1WAalVE2ms49E5afsYV131G5ezv3ANmagY%3D%3A0"
        },
        {
                "sourceName":"93号仓库",
                "sourceUrl":"https://raw.iqiq.io/leevi0709/apps/main/1"
        },
        {
                "sourceName":"94号仓库",
                "sourceUrl":"https://agit.ai/00/0/raw/branch/0/0/00"
        },
        {
                "sourceName":"95号仓库",
                "sourceUrl":"https://agit.ai/00/0/raw/branch/0/0/0"
        },
        {
                "sourceName":"96号仓库",
                "sourceUrl":"https://share.nite07.com/api/v3/file/source/23750/T%E7%89%88-%E9%BB%91%E5%A3%81%E7%BA%B8.txt?sign=-Nq8wwsUT4yJQ7nlMR-FDvoOHu_XHJqcNOYRtF1Mnyc%3D%3A0"
        },
        {
                "sourceName":"97号仓库",
                "sourceUrl":"https://raw.iqiq.io/leevi0709/apps/main/2"
        },
        {
                "sourceName":"98号仓库",
                "sourceUrl":"https://raw.iqiq.io/leevi0709/apps/main/3"
        },
        {
                "sourceName":"99号仓库",
                "sourceUrl":"https://raw.iqiq.io/leevi0709/apps/main/4"
        },
        {
                "sourceName":"100号仓库",
                "sourceUrl":"https://raw.iqiq.io/leevi0709/apps/main/5"
        },
        {
                "sourceName":"101号仓库",
                "sourceUrl":"http://5.nxog.top/m/api.php?id=24"
        },
        {
                "sourceName":"102号仓库",
                "sourceUrl":"https://pan.css.lc/api/v3/file/get/89920/%E6%98%9F%E6%B2%B3%E8%BD%AF%E4%BB%B6%E5%9B%AD%E7%BB%BF%E8%89%B2%E4%BB%93%E5%BA%93.txt?sign=kHRUFbInXSY091BK6bzSDmd2gReOQI6Az7AuxS6yPbc%3D%3A0"
        },
        {
                "sourceName":"103号仓库",
                "sourceUrl":"https://download.kstore.space/download/2888/XB/多仓库.txt"
        }
    ]
}
